module tools/workflowclient

go 1.17

replace (
	gitlab.com/project-emco/core/emco-base/src/clm => ../../clm
	gitlab.com/project-emco/core/emco-base/src/monitor => ../../monitor
	gitlab.com/project-emco/core/emco-base/src/orchestrator => ../../orchestrator
	gitlab.com/project-emco/core/emco-base/src/rsync => ../../rsync
	gitlab.com/project-emco/core/emco-base/src/workflowmgr => ../../workflowmgr

)

require (
	github.com/gorilla/handlers v1.5.1
	github.com/gorilla/mux v1.8.0
	gitlab.com/project-emco/core/emco-base/src/workflowmgr v0.0.0-00010101000000-000000000000
	go.temporal.io/sdk v1.15.0
)

require (
	github.com/davecgh/go-spew v1.1.1 // indirect
	github.com/facebookgo/clock v0.0.0-20150410010913-600d898af40a // indirect
	github.com/felixge/httpsnoop v1.0.2 // indirect
	github.com/gogo/googleapis v1.4.1 // indirect
	github.com/gogo/protobuf v1.3.2 // indirect
	github.com/gogo/status v1.1.0 // indirect
	github.com/golang/mock v1.6.0 // indirect
	github.com/golang/protobuf v1.5.2 // indirect
	github.com/google/uuid v1.3.0 // indirect
	github.com/grpc-ecosystem/go-grpc-middleware v1.3.0 // indirect
	github.com/pborman/uuid v1.2.1 // indirect
	github.com/pmezard/go-difflib v1.0.0 // indirect
	github.com/robfig/cron v1.2.0 // indirect
	github.com/stretchr/objx v0.3.0 // indirect
	github.com/stretchr/testify v1.7.1 // indirect
	go.temporal.io/api v1.8.0 // indirect
	go.uber.org/atomic v1.9.0 // indirect
	golang.org/x/net v0.0.0-20220531201128-c960675eff93 // indirect
	golang.org/x/sys v0.0.0-20220520151302-bc2c85ada10a // indirect
	golang.org/x/text v0.3.7 // indirect
	golang.org/x/time v0.0.0-20220224211638-0e9765cccd65 // indirect
	google.golang.org/genproto v0.0.0-20220602131408-e326c6e8e9c8 // indirect
	google.golang.org/grpc v1.47.0 // indirect
	google.golang.org/protobuf v1.28.0 // indirect
	gopkg.in/yaml.v3 v3.0.1 // indirect
)
