module gitlab.com/project-emco/core/emco-base/src/tac

require (
	github.com/gorilla/handlers v1.5.1
	github.com/gorilla/mux v1.8.0
	github.com/onsi/ginkgo v1.16.5
	github.com/onsi/gomega v1.18.1
	github.com/pkg/errors v0.9.1
	github.com/stretchr/testify v1.8.0
	gitlab.com/project-emco/core/emco-base/src/orchestrator v0.0.0-20220613182525-5b48099794c6
	gitlab.com/project-emco/core/emco-base/src/rsync v0.0.0-00010101000000-000000000000
	gitlab.com/project-emco/core/emco-base/src/workflowmgr v0.0.0-20220512034944-f292095c1792
	go.temporal.io/api v1.7.0
	go.temporal.io/sdk v1.13.1
)

require (
	github.com/Azure/go-ansiterm v0.0.0-20210617225240-d185dfc1b5a1 // indirect
	github.com/BurntSushi/toml v0.4.1 // indirect
	github.com/MakeNowJust/heredoc v0.0.0-20170808103936-bb23615498cd // indirect
	github.com/Masterminds/goutils v1.1.1 // indirect
	github.com/Masterminds/semver/v3 v3.1.1 // indirect
	github.com/Masterminds/sprig/v3 v3.2.2 // indirect
	github.com/Masterminds/squirrel v1.5.2 // indirect
	github.com/Microsoft/go-winio v0.5.1 // indirect
	github.com/Microsoft/hcsshim v0.9.1 // indirect
	github.com/PuerkitoBio/purell v1.1.1 // indirect
	github.com/PuerkitoBio/urlesc v0.0.0-20170810143723-de5bf2ad4578 // indirect
	github.com/asaskevich/govalidator v0.0.0-20200428143746-21a406dcc535 // indirect
	github.com/beorn7/perks v1.0.1 // indirect
	github.com/cespare/xxhash/v2 v2.1.2 // indirect
	github.com/chai2010/gettext-go v0.0.0-20160711120539-c6fed771bfd5 // indirect
	github.com/containerd/containerd v1.5.9 // indirect
	github.com/containerd/continuity v0.1.0 // indirect
	github.com/coreos/go-semver v0.3.0 // indirect
	github.com/coreos/go-systemd v0.0.0-20190321100706-95778dfbb74e // indirect
	github.com/coreos/pkg v0.0.0-20180928190104-399ea9e2e55f // indirect
	github.com/cyphar/filepath-securejoin v0.2.3 // indirect
	github.com/davecgh/go-spew v1.1.1 // indirect
	github.com/docker/cli v20.10.11+incompatible // indirect
	github.com/docker/distribution v2.7.1+incompatible // indirect
	github.com/docker/docker v20.10.12+incompatible // indirect
	github.com/docker/docker-credential-helpers v0.6.4 // indirect
	github.com/docker/go-connections v0.4.0 // indirect
	github.com/docker/go-metrics v0.0.1 // indirect
	github.com/docker/go-units v0.4.0 // indirect
	github.com/evanphx/json-patch v4.12.0+incompatible // indirect
	github.com/exponent-io/jsonpath v0.0.0-20151013193312-d6023ce2651d // indirect
	github.com/facebookgo/clock v0.0.0-20150410010913-600d898af40a // indirect
	github.com/fatih/color v1.13.0 // indirect
	github.com/felixge/httpsnoop v1.0.2 // indirect
	github.com/fluxcd/go-git-providers v0.5.4 // indirect
	github.com/fluxcd/kustomize-controller/api v0.21.1 // indirect
	github.com/fluxcd/pkg/apis/acl v0.0.3 // indirect
	github.com/fluxcd/pkg/apis/kustomize v0.3.1 // indirect
	github.com/fluxcd/pkg/apis/meta v0.10.2 // indirect
	github.com/fluxcd/pkg/runtime v0.12.5 // indirect
	github.com/fluxcd/source-controller/api v0.21.2 // indirect
	github.com/fsnotify/fsnotify v1.5.1 // indirect
	github.com/fvbommel/sortorder v1.0.1 // indirect
	github.com/ghodss/yaml v1.0.0 // indirect
	github.com/go-errors/errors v1.0.1 // indirect
	github.com/go-logr/logr v1.2.3 // indirect
	github.com/go-logr/stdr v1.2.2 // indirect
	github.com/go-openapi/jsonpointer v0.19.5 // indirect
	github.com/go-openapi/jsonreference v0.19.5 // indirect
	github.com/go-openapi/swag v0.19.14 // indirect
	github.com/go-stack/stack v1.8.1 // indirect
	github.com/gobwas/glob v0.2.3 // indirect
	github.com/gogo/googleapis v1.4.1 // indirect
	github.com/gogo/protobuf v1.3.2 // indirect
	github.com/gogo/status v1.1.0 // indirect
	github.com/golang/mock v1.6.0 // indirect
	github.com/golang/protobuf v1.5.2 // indirect
	github.com/golang/snappy v0.0.4 // indirect
	github.com/google/btree v1.0.1 // indirect
	github.com/google/go-cmp v0.5.8 // indirect
	github.com/google/go-github/v41 v41.0.0 // indirect
	github.com/google/go-querystring v1.1.0 // indirect
	github.com/google/gofuzz v1.2.0 // indirect
	github.com/google/shlex v0.0.0-20191202100458-e7afc7fbc510 // indirect
	github.com/google/uuid v1.3.0 // indirect
	github.com/googleapis/gnostic v0.5.5 // indirect
	github.com/gosuri/uitable v0.0.4 // indirect
	github.com/gregjones/httpcache v0.0.0-20190611155906-901d90724c79 // indirect
	github.com/grpc-ecosystem/go-grpc-middleware v1.3.0 // indirect
	github.com/huandu/xstrings v1.3.2 // indirect
	github.com/imdario/mergo v0.3.12 // indirect
	github.com/inconshreveable/mousetrap v1.0.0 // indirect
	github.com/jmoiron/sqlx v1.3.4 // indirect
	github.com/jonboulle/clockwork v0.2.2 // indirect
	github.com/josharian/intern v1.0.0 // indirect
	github.com/json-iterator/go v1.1.12 // indirect
	github.com/klauspost/compress v1.15.0 // indirect
	github.com/lann/builder v0.0.0-20180802200727-47ae307949d0 // indirect
	github.com/lann/ps v0.0.0-20150810152359-62de8c46ede0 // indirect
	github.com/lib/pq v1.10.4 // indirect
	github.com/libgit2/git2go/v33 v33.0.9 // indirect
	github.com/liggitt/tabwriter v0.0.0-20181228230101-89fcab3d43de // indirect
	github.com/mailru/easyjson v0.7.6 // indirect
	github.com/mattn/go-colorable v0.1.12 // indirect
	github.com/mattn/go-isatty v0.0.14 // indirect
	github.com/mattn/go-runewidth v0.0.9 // indirect
	github.com/matttproud/golang_protobuf_extensions v1.0.2-0.20181231171920-c182affec369 // indirect
	github.com/mitchellh/copystructure v1.2.0 // indirect
	github.com/mitchellh/go-wordwrap v1.0.0 // indirect
	github.com/mitchellh/reflectwalk v1.0.2 // indirect
	github.com/moby/locker v1.0.1 // indirect
	github.com/moby/spdystream v0.2.0 // indirect
	github.com/moby/term v0.0.0-20210610120745-9d4ed1856297 // indirect
	github.com/modern-go/concurrent v0.0.0-20180306012644-bacd9c7ef1dd // indirect
	github.com/modern-go/reflect2 v1.0.2 // indirect
	github.com/monochromegane/go-gitignore v0.0.0-20200626010858-205db1a8cc00 // indirect
	github.com/morikuni/aec v1.0.0 // indirect
	github.com/nxadm/tail v1.4.8 // indirect
	github.com/opencontainers/go-digest v1.0.0 // indirect
	github.com/opencontainers/image-spec v1.0.2 // indirect
	github.com/opencontainers/runc v1.0.2 // indirect
	github.com/openzipkin/zipkin-go v0.4.0 // indirect
	github.com/pborman/uuid v1.2.1 // indirect
	github.com/peterbourgon/diskv v2.0.1+incompatible // indirect
	github.com/pmezard/go-difflib v1.0.0 // indirect
	github.com/prometheus/client_golang v1.11.0 // indirect
	github.com/prometheus/client_model v0.2.0 // indirect
	github.com/prometheus/common v0.28.0 // indirect
	github.com/prometheus/procfs v0.6.0 // indirect
	github.com/robfig/cron v1.2.0 // indirect
	github.com/rubenv/sql-migrate v0.0.0-20210614095031-55d5740dbbcc // indirect
	github.com/russross/blackfriday v1.5.2 // indirect
	github.com/shopspring/decimal v1.2.0 // indirect
	github.com/sirupsen/logrus v1.8.1 // indirect
	github.com/spf13/cast v1.4.1 // indirect
	github.com/spf13/cobra v1.3.0 // indirect
	github.com/spf13/pflag v1.0.5 // indirect
	github.com/stretchr/objx v0.4.0 // indirect
	github.com/tidwall/gjson v1.14.0 // indirect
	github.com/tidwall/match v1.1.1 // indirect
	github.com/tidwall/pretty v1.2.0 // indirect
	github.com/xdg-go/pbkdf2 v1.0.0 // indirect
	github.com/xdg-go/scram v1.1.1 // indirect
	github.com/xdg-go/stringprep v1.0.3 // indirect
	github.com/xeipuuv/gojsonpointer v0.0.0-20180127040702-4e3ac2762d5f // indirect
	github.com/xeipuuv/gojsonreference v0.0.0-20180127040603-bd5ef7bd5415 // indirect
	github.com/xeipuuv/gojsonschema v1.2.0 // indirect
	github.com/xlab/treeprint v0.0.0-20181112141820-a009c3971eca // indirect
	github.com/youmark/pkcs8 v0.0.0-20201027041543-1326539a0a0a // indirect
	github.com/yourbasic/graph v0.0.0-20210606180040-8ecfec1c2869 // indirect
	gitlab.com/project-emco/core/emco-base/src/clm v0.0.0-00010101000000-000000000000 // indirect
	gitlab.com/project-emco/core/emco-base/src/monitor v0.0.0-00010101000000-000000000000 // indirect
	go.etcd.io/etcd v3.3.25+incompatible // indirect
	go.mongodb.org/mongo-driver v1.9.1 // indirect
	go.opentelemetry.io/contrib/instrumentation/go.mongodb.org/mongo-driver/mongo/otelmongo v0.33.0 // indirect
	go.opentelemetry.io/contrib/instrumentation/google.golang.org/grpc/otelgrpc v0.28.0 // indirect
	go.opentelemetry.io/contrib/propagators/b3 v1.8.0 // indirect
	go.opentelemetry.io/otel v1.8.0 // indirect
	go.opentelemetry.io/otel/exporters/zipkin v1.8.0 // indirect
	go.opentelemetry.io/otel/sdk v1.8.0 // indirect
	go.opentelemetry.io/otel/trace v1.8.0 // indirect
	go.starlark.net v0.0.0-20200306205701-8dd3e2ee1dd5 // indirect
	go.uber.org/atomic v1.9.0 // indirect
	go.uber.org/multierr v1.6.0 // indirect
	go.uber.org/zap v1.19.1 // indirect
	golang.org/x/crypto v0.0.0-20220307211146-efcb8507fb70 // indirect
	golang.org/x/net v0.0.0-20220225172249-27dd8689420f // indirect
	golang.org/x/oauth2 v0.0.0-20211104180415-d3ed0bb246c8 // indirect
	golang.org/x/sync v0.0.0-20210220032951-036812b2e83c // indirect
	golang.org/x/sys v0.0.0-20220307203707-22a9840ba4d7 // indirect
	golang.org/x/term v0.0.0-20210927222741-03fcf44c2211 // indirect
	golang.org/x/text v0.3.7 // indirect
	golang.org/x/time v0.0.0-20220224211638-0e9765cccd65 // indirect
	google.golang.org/appengine v1.6.7 // indirect
	google.golang.org/genproto v0.0.0-20220308174144-ae0e22291548 // indirect
	google.golang.org/grpc v1.44.0 // indirect
	google.golang.org/protobuf v1.27.1 // indirect
	gopkg.in/gorp.v1 v1.7.2 // indirect
	gopkg.in/inf.v0 v0.9.1 // indirect
	gopkg.in/tomb.v1 v1.0.0-20141024135613-dd632973f1e7 // indirect
	gopkg.in/yaml.v2 v2.4.0 // indirect
	gopkg.in/yaml.v3 v3.0.1 // indirect
	helm.sh/helm/v3 v3.8.0 // indirect
	k8s.io/api v0.23.3 // indirect
	k8s.io/apiextensions-apiserver v0.23.3 // indirect
	k8s.io/apimachinery v0.23.3 // indirect
	k8s.io/apiserver v0.23.3 // indirect
	k8s.io/cli-runtime v0.23.3 // indirect
	k8s.io/client-go v0.23.3 // indirect
	k8s.io/component-base v0.23.3 // indirect
	k8s.io/klog/v2 v2.30.0 // indirect
	k8s.io/kube-openapi v0.0.0-20220124234850-424119656bbf // indirect
	k8s.io/kubectl v0.23.3 // indirect
	k8s.io/utils v0.0.0-20211208161948-7d6a63dca704 // indirect
	oras.land/oras-go v1.1.0 // indirect
	sigs.k8s.io/controller-runtime v0.11.1 // indirect
	sigs.k8s.io/json v0.0.0-20211208200746-9f7c6b3444d2 // indirect
	sigs.k8s.io/kustomize/api v0.10.1 // indirect
	sigs.k8s.io/kustomize/kyaml v0.13.0 // indirect
	sigs.k8s.io/structured-merge-diff/v4 v4.2.1 // indirect
	sigs.k8s.io/yaml v1.3.0 // indirect
)

replace (
	github.com/docker/distribution => github.com/docker/distribution v0.0.0-20191216044856-a8371794149d
	github.com/docker/docker => github.com/moby/moby v17.12.0-ce-rc1.0.20200618181300-9dc6525e6118+incompatible
	gitlab.com/project-emco/core/emco-base/src/clm => ../clm
	gitlab.com/project-emco/core/emco-base/src/monitor => ../monitor
	gitlab.com/project-emco/core/emco-base/src/orchestrator => ../orchestrator
	gitlab.com/project-emco/core/emco-base/src/rsync => ../rsync
	gitlab.com/project-emco/core/emco-base/src/workflowmgr => ../workflowmgr
	gitlab.com/project-emco/core/emco-base/src/workflowmgr/pkg/module => ../workflowmgr/pkg/module
	go.etcd.io/etcd => go.etcd.io/etcd v0.5.0-alpha.5.0.20200819165624-17cef6e3e9d5 // 17cef6e3e9d5 is the SHA for git tag v3.4.12
	google.golang.org/grpc => google.golang.org/grpc v1.28.0
)

go 1.17
